N_bit_adder/N_bit_adder.sim/sim_1/behav/xsim/N_bit_fulladder.vcd
$date
   Fri Sep  8 14:22:43 2023
$end
$version
  2023.1
$end
$timescale
  1ps
$end
$scope module N_bit_fulladder_tb $end
$scope module dut $end
$var wire 8 ! a [7:0] $end
$var wire 8 " b [7:0] $end
$var wire 1 # cin $end
$var reg 8 $ sum [7:0] $end
$var reg 1 % co $end
$var reg 1 & co $end
$scope module genblk1[0].fa $end
$var wire 1 ' a $end
$var wire 1 ( b $end
$var wire 1 ) cin $end
$var reg 1 * sum $end
$var reg 1 + co $end
$var reg 1 , wire1 $end
$var reg 1 - wire2 $end
$upscope $end
$scope module genblk1[1].fa $end
$var wire 1 . a $end
$var wire 1 / b $end
$var wire 1 0 cin $end
$var reg 1 1 sum $end
$var reg 1 2 co $end
$var reg 1 3 wire1 $end
$var reg 1 4 wire2 $end
$upscope $end
$scope module genblk1[2].fa $end
$var wire 1 5 a $end
$var wire 1 6 b $end
$var wire 1 7 cin $end
$var reg 1 8 sum $end
$var reg 1 9 co $end
$var reg 1 : wire1 $end
$var reg 1 ; wire2 $end
$upscope $end
$scope module genblk1[3].fa $end
$var wire 1 < a $end
$var wire 1 = b $end
$var wire 1 > cin $end
$var reg 1 ? sum $end
$var reg 1 @ co $end
$var reg 1 A wire1 $end
$var reg 1 B wire2 $end
$upscope $end
$scope module genblk1[4].fa $end
$var wire 1 C a $end
$var wire 1 D b $end
$var wire 1 E cin $end
$var reg 1 F sum $end
$var reg 1 G co $end
$var reg 1 H wire1 $end
$var reg 1 I wire2 $end
$upscope $end
$scope module genblk1[5].fa $end
$var wire 1 J a $end
$var wire 1 K b $end
$var wire 1 L cin $end
$var reg 1 M sum $end
$var reg 1 N co $end
$var reg 1 O wire1 $end
$var reg 1 P wire2 $end
$upscope $end
$scope module genblk1[6].fa $end
$var wire 1 Q a $end
$var wire 1 R b $end
$var wire 1 S cin $end
$var reg 1 T sum $end
$var reg 1 U co $end
$var reg 1 V wire1 $end
$var reg 1 W wire2 $end
$upscope $end
$scope module genblk1[7].fa $end
$var wire 1 X a $end
$var wire 1 Y b $end
$var wire 1 Z cin $end
$var reg 1 [ sum $end
$var reg 1 & co $end
$var reg 1 \ wire1 $end
$var reg 1 ] wire2 $end
$upscope $end
$upscope $end
$upscope $end
$enddefinitions $end
#0
$dumpvars
b101 !
b1010 "
0#
b1111 $
x%
0&
1'
0(
0)
1*
0+
1,
0-
0.
1/
00
11
02
13
04
15
06
07
18
09
1:
0;
0<
1=
0>
1?
0@
1A
0B
0C
0D
0E
0F
0G
0H
0I
0J
0K
0L
0M
0N
0O
0P
0Q
0R
0S
0T
0U
0V
0W
0X
0Y
0Z
0[
0\
0]
$end
#1000
b1101110 "
b1110011 $
0(
1/
16
08
19
0:
1=
1>
0?
1@
1B
0D
1E
1F
1K
1M
1O
1R
1T
1V
0Y
#10000
b111111 !
b100110 "
1#
b1100110 $
1'
0(
1)
0*
1+
1-
1.
1/
10
11
12
03
15
16
17
18
1<
0=
1C
0D
0F
1G
1H
1I
1J
1K
1L
1N
0O
0Q
0R
1S
1T
0V
0X
0Y
#20000
b110100 !
b1011010 "
b10001111 $
0'
0(
1*
0+
0,
0-
0.
1/
00
02
13
04
15
06
07
18
09
1:
0;
0<
1=
0>
1?
0@
0B
1C
1D
0E
0F
0H
0I
1J
0K
0M
1O
1P
0Q
1R
0T
1U
1V
1W
0X
0Y
1Z
1[
#30000
b1100010 !
b11 "
b1100110 $
0'
1(
0*
1+
1,
1-
1.
1/
10
12
03
05
06
17
0:
0<
0=
0?
0A
0C
0D
0G
1J
0K
0L
1M
0N
0P
1Q
0R
0S
1T
0U
0W
0X
0Y
0Z
0[
#40000
b100111 !
b1111001 "
0#
b10100000 $
1'
1(
0)
0,
0-
1.
0/
01
13
14
15
06
08
19
1:
1;
0<
1=
1>
0?
1@
1A
1B
0C
1D
1E
0F
1G
1H
1I
1J
1K
1L
1M
1N
0O
0Q
1R
1S
0T
1U
1W
0X
0Y
1Z
1[
#50000
b1010 !
b1111111 "
b10001001 $
0'
1(
1*
0+
1,
1.
1/
00
01
03
04
05
16
1<
1=
1?
0A
0B
0C
1D
0J
1K
0M
1O
1P
0Q
1R
0X
0Y
#60000
b1110000 !
b1000011 "
1#
b10110100 $
0'
1(
1)
0*
1+
1-
0.
1/
10
01
12
13
14
05
06
17
18
09
0:
0;
0<
0=
0>
0?
0@
1C
0D
0E
1F
0G
0I
1J
0K
0L
1M
0N
0P
1Q
1R
0S
0T
0V
0W
0X
0Y
#70000
b101010 !
b100011 "
b1001110 $
0'
1(
1.
1/
11
03
04
05
06
1<
0=
1?
1A
0C
0D
0F
0H
1J
1K
0M
1N
0O
0Q
0R
1S
1T
0U
0X
0Y
0Z
0[
#80000
b1111101 !
b1110110 "
b11110100 $
1'
0(
0.
1/
01
13
14
15
16
19
1<
0=
1>
0?
1@
1B
1C
1D
1E
1F
1G
1J
1K
1L
1M
1Q
1R
1U
0X
0Y
1Z
1[
#90000
b110101 !
b1111011 "
0#
b10110000 $
1'
1(
0)
0,
0-
0.
1/
15
06
08
1:
1;
0<
1=
1C
1D
1J
1K
0Q
1R
0T
1V
1W
0X
0Y
